<svg xmlns="http://www.w3.org/2000/svg" width="24" height="24" viewBox="0 0 24 24">
	<style type="text/css">
		.shape {fill:#000000;}
	</style>
    <path fill="none" d="M0 0h24v24H0V0z"/>
    <path class="shape" d="M19 15l-6 6-1.42-1.42L15.17 16H4V4h2v10h9.17l-3.59-3.58L13 9l6 6z"/>
</svg>
