<svg xmlns="http://www.w3.org/2000/svg" xmlns:xlink="http://www.w3.org/1999/xlink" width="24" height="24" viewBox="0 0 24 24">
    <style type="text/css">
        .shape {fill:#000000;}
    </style>
    <defs>
        <path id="a" d="M0 0h24v24H0V0z"/>
    </defs>
    <defs>
        <path id="c" d="M0 0h24v24H0V0z"/>
    </defs>
    <clipPath id="b">
        <use xlink:href="#a" overflow="visible"/>
    </clipPath>
    <clipPath id="d" clip-path="url(#b)">
        <use xlink:href="#c" overflow="visible"/>
    </clipPath>
    <path class="shape" d="M2.5 19h19v2h-19zm7.18-5.73l4.35 1.16 5.31 1.42c.8.21 1.62-.26 1.84-1.06.21-.8-.26-1.62-1.06-1.84l-5.31-1.42-2.76-9.02L10.12 2v8.28L5.15 8.95l-.93-2.32-1.45-.39v5.17l1.6.43 5.31 1.43z" clip-path="url(#d)"/>
</svg>
