<svg xmlns="http://www.w3.org/2000/svg" xmlns:xlink="http://www.w3.org/1999/xlink" width="24" height="24" viewBox="0 0 24 24">
    <style type="text/css">
        .shape {fill:#000000;}
    </style>
    <defs>
        <path id="a" d="M0 0h24v24H0z"/>
    </defs>
    <clipPath id="b">
        <use xlink:href="#a" overflow="visible"/>
    </clipPath>
    <path class="shape" clip-path="url(#b)" d="M9 4c0-1.11.89-2 2-2s2 .89 2 2-.89 2-2 2-2-.89-2-2zm7 9c-.01-1.34-.83-2.51-2-3 0-1.66-1.34-3-3-3s-3 1.34-3 3v7h2v5h3v-5h3v-4z"/>
</svg>
