<svg xmlns="http://www.w3.org/2000/svg" width="24" height="24" viewBox="0 0 24 24">
    <style type="text/css">
        .shape {fill:#000000;}
    </style>
    <path d="M0 0h24v24H0z" fill="none"/>
    <path class="shape" d="M19.59 7L12 14.59 6.41 9H11V7H3v8h2v-4.59l7 7 9-9z"/>
</svg>
